Lab 1: Census Data Quality for Policy Decisions – Indrajeet Chavan - CPLN 5920 Portfolio
…
- Year: 2022 - Survey: acs5 - Output format: wide

Hint: Remember to give your variables descriptive names using the variables = c(name = "code") syntax.

# Write your get_acs() code here
PA_data <- get_acs(geography = "County", state = "PA", 
                   variables = c(medinc = "B19013_001", 
                                 totpop = "B01003_001"), #Median Income and Total Population
                   year = 2022, survey = "acs5", 
                   output = "wide")

PA_data

# A tibble: 67 × 6
   GEOID NAME                           medincE medincM totpopE totpopM
   <chr> <chr>                            <dbl>   <dbl>   <dbl>   <dbl>
 1 42001 Adams County, Pennsylvania       78975    3334  104604      NA
 2 42003 Allegheny County, Pennsylvania   72537     869 1245310      NA
 3 42005 Armstrong County, Pennsylvania   61011    2202   65538      NA
 4 42007 Beaver County, Pennsylvania      67194    1531  167629      NA
 5 42009 Bedford County, Pennsylvania     58337    2606   47613      NA
 6 42011 Berks County, Pennsylvania       74617    1191  428483      NA
 7 42013 Blair County, Pennsylvania       59386    2058  122640      NA
 8 42015 Bradford County, Pennsylvania    60650    2167   60159      NA
 9 42017 Bucks County, Pennsylvania      107826    1516  645163      NA
10 42019 Butler County, Pennsylvania      82932    2164  194562      NA
# ℹ 57 more rows
…
3.1 Focus Area Selection

Your Task: Select 2-3 counties from your reliability analysis for detailed tract-level study.

Strategy: Choose counties that represent different reliability levels (e.g., 1 high confidence, 1 moderate, 1 low confidence) to compare how data quality varies.

# Use filter() to select 2-3 counties from your county_reliability data
# Store the selected counties in a variable called selected_counties
# Display the selected counties with their key characteristics
# Show: county name, median income, MOE percentage, reliability category

tibble (PA_Reliability) %>%
  arrange(desc(moe_pct))

# A tibble: 67 × 9
   GEOID NAME    medincE medincM totpopE totpopM county_name moe_pct reliability
   <chr> <chr>     <dbl>   <dbl>   <dbl>   <dbl> <chr>         <dbl> <chr>      
 1 42053 Forest…   46188    4612    6959      NA Forest         9.99 Moderate C…
 2 42113 Sulliv…   62910    5821    5880      NA Sullivan       9.25 Moderate C…
 3 42119 Union …   64914    4753   42908      NA Union          7.32 Moderate C…
 4 42093 Montou…   72626    5146   18165      NA Montour        7.09 Moderate C…
 5 42047 Elk Co…   61672    4091   30886      NA Elk            6.63 Moderate C…
 6 42059 Greene…   66283    4247   35781      NA Greene         6.41 Moderate C…
 7 42023 Camero…   46186    2605    4536      NA Cameron        5.64 Moderate C…
 8 42109 Snyder…   65914    3666   39797      NA Snyder         5.56 Moderate C…
 9 42025 Carbon…   64538    3424   65018      NA Carbon         5.31 Moderate C…
10 42123 Warren…   57925    3005   38492      NA Warren         5.19 Moderate C…
# ℹ 57 more rows
…
counties <- c ("101", "027", "053") # Philadelphia, Centre, Forest

tract_data <- get_acs(geography = "tract", 
                      variables = acs_var1,
                      survey = "acs5",
                      year = 2022,
                      state = "PA",
                      county = counties,
                      output = "wide")

tract_data

# A tibble: 451 × 10
   GEOID       NAME   whiteE whiteM blackE blackM hispanicE hispanicM total_popE
   <chr>       <chr>   <dbl>  <dbl>  <dbl>  <dbl>     <dbl>     <dbl>      <dbl>
 1 42027010100 Censu…   3693    330      7     12        13        16       3826
 2 42027010200 Censu…   2717    215      0     11        42        52       2805
 3 42027010300 Censu…   3076    330    222    228        15        24       3327
 4 42027010400 Censu…   3053    270      0     11        62        68       3141
 5 42027010500 Censu…   4815    305      3      4        10         9       4961
 6 42027010600 Censu…   3884    278      8     14        30        30       3962
 7 42027010700 Censu…   5680    462      5      8       125       171       6095
 8 42027010801 Censu…   1766    179      0     11         2         4       1772
 9 42027010802 Censu…   3588    400      0     11        60        53       3772
10 42027010901 Censu…   3732    399      0     11         9        16       3794
# ℹ 441 more rows
# ℹ 1 more variable: total_popM <dbl>
…
recommendations_table <- PA_Reliability %>%
  select(County = county_name,
         Median_Income = medincE,
         MOE_Percentage = moe_pct,
         Reliability = reliability) %>%
  mutate(Algorithm_Recommendations = case_when(
    Reliability == "High Confidence" ~ "Safe for algorithmic decisions",
    Reliability== "Moderate Confidence" ~ "Use with caution – monitor outcomes",
    Reliability== "Low Confidence" ~ "Requires manual review or additional data"
    )
    )

recommendations_table

# A tibble: 67 × 5
   County    Median_Income MOE_Percentage Reliability     Algorithm_Recommenda…¹
   <chr>             <dbl>          <dbl> <chr>           <chr>                 
 1 Adams             78975           4.22 High Confidence Safe for algorithmic …
 2 Allegheny         72537           1.20 High Confidence Safe for algorithmic …
 3 Armstrong         61011           3.61 High Confidence Safe for algorithmic …
 4 Beaver            67194           2.28 High Confidence Safe for algorithmic …
 5 Bedford           58337           4.47 High Confidence Safe for algorithmic …
 6 Berks             74617           1.60 High Confidence Safe for algorithmic …
 7 Blair             59386           3.47 High Confidence Safe for algorithmic …
 8 Bradford          60650           3.57 High Confidence Safe for algorithmic …
 9 Bucks            107826           1.41 High Confidence Safe for algorithmic …
10 Butler            82932           2.61 High Confidence Safe for algorithmic …
# ℹ 57 more rows
# ℹ abbreviated name: ¹​Algorithm_Recommendations
…
